%YAML 1.1
%TAG !u! tag:unity3d.com,2011:
--- !u!114 &11400000
MonoBehaviour:
  m_ObjectHideFlags: 0
  m_CorrespondingSourceObject: {fileID: 0}
  m_PrefabInstance: {fileID: 0}
  m_PrefabAsset: {fileID: 0}
  m_GameObject: {fileID: 0}
  m_Enabled: 1
  m_EditorHideFlags: 0
  m_Script: {fileID: 11500000, guid: ce0dc2c4fdb057d44b50e0ec3b1da7d4, type: 3}
  m_Name: TestPath
  m_EditorClassIdentifier: 
  points:
  - GameObject (1)
  - GameObject (2)
  - GameObject (3)
  - GameObject (4)
  - GameObject (5)
  - GameObject (6)
  - GameObject (7)
  - GameObject (8)
  - GameObject (9)
  - GameObject (10)
  current: 3
