%YAML 1.1
%TAG !u! tag:unity3d.com,2011:
--- !u!114 &11400000
MonoBehaviour:
  m_ObjectHideFlags: 0
  m_CorrespondingSourceObject: {fileID: 0}
  m_PrefabInstance: {fileID: 0}
  m_PrefabAsset: {fileID: 0}
  m_GameObject: {fileID: 0}
  m_Enabled: 1
  m_EditorHideFlags: 0
  m_Script: {fileID: 11500000, guid: 70f599d873ee86e499da992c3ad54db7, type: 3}
  m_Name: Dialogue3
  m_EditorClassIdentifier: 
  id: Dialogue3
  texts:
  - "PERO QUE HAS HECHO EST\xDAPIDA? No sabes lo que eso significa. Ahora el antivirus
    nos estar\xE1 buscando"
  - Mierda escondete!
  - "Bueno, no iva a dejar que me eliminaran\u2026"
  - "Mira Ann, eres la \xFAnica del juego que no tiene una IA, por eso no tienes recuerdos
    de nada de esto. No sabes como funciona nada. Normalmente te quejas pero nunca
    la hab\xEDas liado tanto. Estamos en serios problemas. \xBFVes eso de ah\xED?
    son esc\xE1neres del antivirus, si nos ven nos van a eliminar para siempre."
  - "Joder lo siento pero me tendr\xEDas que estar agradecido, no s\xE9 c\xF3mo dejas
    que te eliminen cada vez\u2026, no tienes una vida que te gustar\xEDa conservar
    o que?"
  - "Perdona? Lo que t\xFA no tienes es verg\xFCenza. Deja de hacer preguntas personales,
    que no me conoces. Mira lo importante ahora es salir de aqu\xED, pero para eso
    hay que cruzar la calle y est\xE1n esos esc\xE1neres ah\xED, habr\xE1 que ver
    como los rodeamos."
  talker:
  - Friend
  - Friend
  - Player
  - Friend
  - Player
  - Friend
  voices:
  - {fileID: 8300000, guid: 9ff65d55271d2b849a5b5a001b59a30d, type: 3}
  - {fileID: 8300000, guid: fb9b9556a403fe54281e035e390d4f67, type: 3}
  - {fileID: 8300000, guid: 8d4b1ff863dc3de4ea9b3e9e963a1977, type: 3}
  - {fileID: 8300000, guid: 35d9d7fbf4ca5964aa48554645bc839c, type: 3}
  - {fileID: 8300000, guid: 3244df592c584a9459c84753da554955, type: 3}
  - {fileID: 8300000, guid: 83a58ca4249fb9e4385165564915a93f, type: 3}
  offsets:
  - 1
  - 3
  - 1
  - 1
  - 1
  - 1
