%YAML 1.1
%TAG !u! tag:unity3d.com,2011:
--- !u!114 &11400000
MonoBehaviour:
  m_ObjectHideFlags: 0
  m_CorrespondingSourceObject: {fileID: 0}
  m_PrefabInstance: {fileID: 0}
  m_PrefabAsset: {fileID: 0}
  m_GameObject: {fileID: 0}
  m_Enabled: 1
  m_EditorHideFlags: 0
  m_Script: {fileID: 11500000, guid: 70f599d873ee86e499da992c3ad54db7, type: 3}
  m_Name: Dialogue2
  m_EditorClassIdentifier: 
  id: Dialogue2
  texts:
  - Perdona? .........Que?
  - Vale Ann tranquila esto te va a chocar pero estamos en un videojuego, nada de
    esto es real.
  - Pero que dices??... Voy a acabar contigo!
  - 'Ann el juego se ha acabado ya no puedo morir, y tu tampoco, de echo mira, esto
    es un decorado:'
  - "Como has hecho eso? Oh mierda, esto no puede estar pasando\u2026"
  - Venga Ann ven conmigo, que van a eliminar toda esta escena.
  - Que?, NO, no voy a ir, no te creo.
  - Bueno, tu misma...
  - "Bueno bien, la ultima vez no viniste y te eliminaron. Vamos, cojamos el tren,
    que nos guardar\xE1n en memoria y despu\xE9s nos eliminan."
  - "Espera espera como que la \xFAltima vez, y que quiere decir eso de eliminar??"
  talker:
  - Player
  - Friend
  - Player
  - Friend
  - Player
  - Friend
  - Player
  - Friend
  - Friend
  - Player
  voices:
  - {fileID: 8300000, guid: 1ef3432266a871f4d894ae419dd5b618, type: 3}
  - {fileID: 8300000, guid: 7d2761bc455473c47b7cda41c5caf1e1, type: 3}
  - {fileID: 8300000, guid: 8d656b1d57e18c648870878ae66b605b, type: 3}
  - {fileID: 8300000, guid: 415fcfd687de11a4aab6ad2b4af34b8a, type: 3}
  - {fileID: 8300000, guid: b21b6ffc658271e4c9bcce46fd705cf4, type: 3}
  - {fileID: 8300000, guid: dd55659841346e642ac3ce0792edfaa9, type: 3}
  - {fileID: 8300000, guid: 8d08760d094221c4fac8519abdbff6ed, type: 3}
  - {fileID: 8300000, guid: ec7bcf87ae0125046b7956fd9597f214, type: 3}
  - {fileID: 8300000, guid: d8414be28ad72a14b8ac8218b4a68930, type: 3}
  - {fileID: 8300000, guid: a0c278b7dc933e84db282ee219a846fa, type: 3}
  offsets:
  - 2
  - 1
  - 1
  - 1
  - 1
  - 1
  - 1
  - 12
  - 1
  - 1
